fashion
    men 

    women

    children

    others

health & beiuty
    body care 

    makeup

    perfuime 

    others

home 
    kitchen 

    bedroom

    bathroom

    others

electronic
    mobiles

    computers

    home appliances 

    others

industrial & tools
    carpentery

    building tools

    home improvments 

    others